{
  "type": "service_account",
  "project_id": "freecharge-recharges",
  "private_key_id": "116d85692d2d5df5a9b10cd3ee75e6a423c023fd",
  "private_key": "-----BEGIN PRIVATE KEY-----\nMIIEvQIBADANBgkqhkiG9w0BAQEFAASCBKcwggSjAgEAAoIBAQCmDyt+2kFOGzDo\nHOzNPqoH79NIBIdnWAHCzvtw0y/CNVM+ozrcQkxEecjnKV4lSjckg8MR7OF8yPNq\nR8Nr6jqIJ+mBgisTp+hlC8nxb5XkzsHBwivcvND13GxHh2BKPuovuz1p7dRuMxVs\nq/6h198PHy6oAm37Viwq+WP9M+k7ztuuf6at4nzKlpkR+si+zNaqQ8jbscaqakT/\nr2p4Vi8w+Ergy/JQpHmLu1GA6GZfgr87qtSNR6u5dUwS16dmNzeUCY2gjWv0x3xJ\nv0XLLHDwPwE8OjJkaNzoD4BzrmtuqmTyo3Kki0Fpv49CJPc7enCRp+fXRDksZdzn\nWKaprfVjAgMBAAECggEASXEPGwi69ijHbfiQ8EsFFwKFrmW2XsnI6ZfyE1mLVziP\nSvYVC6HUqjo0VKvyg8p5bdBKXyylIzOamAgKETmjzmDcgFcJ5yUM/leC5iEkKXAZ\nuDBAht0JC5uDVfU07FE78IU+aZFyMJSuJoRA1uIquDzhvRNqAc0ANrdadfrV7Yld\nutZqXwVEV383pv8Dg8vErdp8H5aGXrGYCMKf84oezFz5PadNrsPoVn3pcrK0o6qF\nFp91rCcl7Dnn1j8WMfk9K4JvGz50/Ijz+zE1qOYrL4NNeBcm+poLS70bDHzm2UN6\n6V8Ci0wjFf2vGcSWd8L6ODhPm3AbJmTTlse+Qhlm/QKBgQDdtPp8mPgLE3shM//6\njhheVjG3vRggdr4iIDzsTc+OREVCQaJ5ks+QnL1jab0/HBGrQC+oTLOmIgOd36aS\nYaGX9Elcgcbc3Q8z50Ds0S4zLhcQdwA+rVZagctLmBqs2N/12gJVoeW7vZnHMyuP\nBVhW24fw2tCc1NCkvurz2i3XdwKBgQC/vq/YO7glOsUdCuh+91ULxzztBE88xwou\nPKTzLxQMbDoEU/6HyWj4KCyqrm3miptLUwbLt/PtQVknEHfbG70rPjFNQiTfaenx\nN6jatpzr9fiJpTVL+WBQZtZEqY0nEMBQpMtZpDN8H6QPggNs3O1pVlw87C0bJcX3\nC5MpDfBkdQKBgHDsEPkNYKkjjv9mYObZIQhLlp8jLPq8ADOZf+5L439uvmf0zjBl\n2lqpury7yqwuO8Ghu6RZDNd9U6JBm7HLEGc5AXSglQ1BetDQ5Hy6PnHK8+xq8DD8\nUJNgsI8cNdn7zHaIR9Ad2ck51O1k3rbF3iy/PAotKTv4GR0QMNNrORYZAoGACZTy\n3qBlXF7qeMARzD553oPPVJzRhN0BcjwPliN1IgXKhGraHlj/SN9hFApxbYLhrcrx\nXP7NTr7kQKJ/CtEBDAcomY7DnvKBAU/hvURA5T2+dMpvtmM43+uzq2y5pAkfQyhp\nDQq6k+pU3X2GxErqBkiNhXHb8y5ZDTZj3TpYF/0CgYEA3Cx/A0UHeXdm8yLWDI5B\nc3V5twRPzxAPFZc9MaWFkRVwTIWURymSGQkGEYEnkvZ8z3y3mV7gnQHIZykfG9nJ\n02KjK53iJt8BNU5nujJM1C5FdntmLj2QzjezCV6j7L5VDtBErcg95OSipauJh1cc\nEiz3Us1oUrMTtPjGkal+Ocs=\n-----END PRIVATE KEY-----\n",
  "client_email": "google-recharges@freecharge-recharges.iam.gserviceaccount.com",
  "client_id": "109584850939180817808",
  "auth_uri": "https://accounts.google.com/o/oauth2/auth",
  "token_uri": "https://oauth2.googleapis.com/token",
  "auth_provider_x509_cert_url": "https://www.googleapis.com/oauth2/v1/certs",
  "client_x509_cert_url": "https://www.googleapis.com/robot/v1/metadata/x509/google-recharges%40freecharge-recharges.iam.gserviceaccount.com"
}
